…
```r
# type your code for the Exercise here, and Run Document
sample_means_small <- rep_sample_n(tbl = ames, size = 10, replace = T, reps = 25) %>% 
  summarise(x_bar = mean(area))

sample_means_small
```

```
## # A tibble: 25 x 2
##    replicate x_bar
##        <int> <dbl>
##  1         1 1303.
##  2         2 1522.
##  3         3 1690.
##  4         4 1629.
##  5         5 1615 
##  6         6 1314.
##  7         7 1462.
##  8         8 1491.
##  9         9 1456.
## 10        10 1363.
## # ... with 15 more rows
```
…
